,score,name, Sal,Communication,Retail,Teamwork,Umsatz
12244000000202386,100,Karin Schumacher,600000.0,4.0,3.0,3.0,2.0
12244000000209057,68,Bob Dylan,55555.0,3.0,1.0,3.0,3.0
12244000000177045,0,Johannes van Wakkerdam,,,,,
